…
    conflict_prefer("filter", "dplyr")

Load raw data from `rds` file data/df\_act\_meas.rds.

    read_data <- function(act_meas_path) {
      read_rds(act_meas_path)
    }

    ## # A tibble: 90,917 x 13
    ##    id      moving velocity_smooth grade_smooth distance altitude heartrate  time
    ##    <chr>   <lgl>            <dbl>        <dbl>    <dbl>    <dbl>     <int> <int>
    ##  1 366972~ FALSE              0            0        0      1452.        NA     0
    ##  2 366972~ FALSE              0            0        0.9    1446         NA   412
    ##  3 366972~ TRUE               0          -44.6      4.6    1446         NA   413
    ##  4 366972~ TRUE               0            1.4      8.4    1446         NA   414
    ##  5 366972~ TRUE               0            2.8     12.1    1446.        NA   415
    ##  6 366972~ TRUE               0            2.8     15.6    1446.        NA   416
    ##  7 366972~ TRUE               0            1.4     19.1    1446.        NA   417
    ##  8 366972~ TRUE               3.6          1.4     22.5    1446.        NA   418
    ##  9 366972~ TRUE               3.5          0       26      1446.        NA   419
    ## 10 366972~ TRUE               3.5          1.6     29.5    1446.        NA   420
    ## # ... with 90,907 more rows, and 5 more variables: cadence <int>, watts <int>,
    ## #   lat <dbl>, lng <dbl>, act_date <date>
…
