Getting Over It
…
library(transalp)

Load the other necessary libraries:

library(tidyverse)
library(patchwork)
library(drake)
library(here)
library(fs)

The package includes the underlying data:

df_act_meas_raw <- transalp::df_act_meas

# A tibble: 90,917 x 10
   id         act_date   moving velocity_smooth grade_smooth distance
   <chr>      <date>     <lgl>            <dbl>        <dbl>    <dbl>
 1 3669729902 2020-06-25 FALSE              0            0        0  
 2 3669729902 2020-06-25 FALSE              0            0        0.9
 3 3669729902 2020-06-25 TRUE               0          -44.6      4.6
 4 3669729902 2020-06-25 TRUE               0            1.4      8.4
 5 3669729902 2020-06-25 TRUE               0            2.8     12.1
 6 3669729902 2020-06-25 TRUE               0            2.8     15.6
 7 3669729902 2020-06-25 TRUE               0            1.4     19.1
 8 3669729902 2020-06-25 TRUE               3.6          1.4     22.5
 9 3669729902 2020-06-25 TRUE               3.5          0       26  
10 3669729902 2020-06-25 TRUE               3.5          1.6     29.5
# ... with 90,907 more rows, and 4 more variables: altitude <dbl>,
#   time <int>, lat <dbl>, lng <dbl>
…
